<?xml version="1.0" encoding="UTF-8"?>
<svg width="512px" height="512px" fill="#0AA347" version="1.1" viewBox="0 0 395.57 395.57" xmlns="http://www.w3.org/2000/svg" xml:space="preserve"> <path transform="scale(.7726)" d="m74.846 35.963c-41.27 0-74.848 33.577-74.848 74.846v290.38c0 41.269 33.578 74.846 74.848 74.846h362.31c41.27 0 74.848-33.577 74.848-74.846v-230.3c-0.00129-28.459-15.979-53.237-39.426-65.889h-0.00195c-2.977-38.563-35.285-69.039-74.6-69.039h-323.13zm0 40.533h323.13c18.923 0 34.318 15.395 34.318 34.316v290.38c0 18.922-15.395 34.318-34.318 34.318h-323.13c-18.923 0-34.318-15.396-34.318-34.318v-290.38c0-18.922 15.395-34.316 34.318-34.316zm91.049 20.887c-5.831 0-10.557 4.7276-10.557 10.559v69.354c0 5.8323 4.7257 10.557 10.557 10.557h44.332c5.8297 0 10.559-4.7244 10.559-10.557-0.0013-5.8297-4.7276-10.559-10.559-10.559h-32.93v-14.201h26.875c5.8297 0 10.557-4.725 10.557-10.555v-0.8457c0-5.8323-4.727-10.557-10.557-10.557h-26.875v-11.236h31.516c5.831 0 10.559-4.7257 10.559-10.557v-0.84375c0-5.831-4.7263-10.559-10.559-10.559h-42.918zm-84.48 0.007813c-5.831 0-10.557 4.7276-10.557 10.559v69.354c0 5.8323 4.7244 10.557 10.557 10.557h0.8457c5.831 0 10.557-4.7244 10.557-10.557v-37.221l31.527 43.422c1.9881 2.7349 5.1609 4.3555 8.543 4.3555h1.0234c0.03883 0 0.07899-0.00782 0.11523-0.00782 0.05307 0 0.10384 0.00782 0.1582 0.00782h0.84375c5.8297 0 10.557-4.7244 10.557-10.557v-69.354c0-5.831-4.727-10.559-10.557-10.559h-0.84375c-5.8323 0-10.559 4.7276-10.559 10.559v37.219l-31.525-43.424c-1.9868-2.7349-5.1635-4.3535-8.543-4.3535h-1.0254c-0.03883 0-0.074451 0.007813-0.11328 0.007813-0.054362 0-0.10514-0.007813-0.1582-0.007813h-0.8457zm295.51 0c-22.431 0-32.471 12.861-32.471 25.609 0 20.386 17.256 25.613 28.674 29.07 12.432 3.7652 13.529 5.2606 13.502 8.6699 0 3.5452-6.1822 5.1602-11.924 5.1602-5.5786 0-11.698-2.3826-15.229-5.9277-1.979-1.9881-4.6665-3.1035-7.4688-3.1074h-0.00977c-2.7984 0-5.4858 1.1115-7.4648 3.0918l-0.57617 0.57813c-1.9972 1.9972-3.1112 4.7109-3.0918 7.5352 0.01942 2.8255 1.1684 5.5261 3.1914 7.4961 7.7932 7.5835 19.537 12.293 30.648 12.293 23.407 0 33.884-13.623 33.883-27.043 0.16179-20.937-18.062-26.444-28.951-29.734-12.083-3.6526-13.223-5.1193-13.223-8.082 0-1.7629 4.2245-3.6484 10.51-3.6484 4.2066 0 9.1888 1.2345 12.115 3 4.9392 2.9847 11.355 1.4486 14.412-3.4453l0.38867-0.61914c1.495-2.3919 1.9675-5.2834 1.3164-8.0273-0.64847-2.7453-2.3705-5.1156-4.7793-6.582-6.4613-3.9361-15.229-6.2871-23.453-6.2871zm-142.92 0.001953c-3.4028 0-6.5959 1.6403-8.5801 4.4063-1.9829 2.7647-2.5117 6.3194-1.418 9.541l23.516 69.354c1.451 4.283 5.473 7.166 9.998 7.166h0.64844c0.01424 0 0.02678-0.00196 0.04102-0.00196 0.01294 0 0.02548 0.00196 0.04101 0.00196h0.54493c4.5328 0 8.5575-2.8929 10.006-7.1875l13.197-39.184 13.135 39.172c1.4419 4.3024 5.4718 7.2012 10.01 7.2012h0.64844c0.01424 0 0.02548-0.00196 0.04101-0.00195 0.01554 0 0.02874 0.00195 0.04297 0.00195h0.54493c4.5237 0 8.5458-2.8837 9.998-7.168l23.516-69.354c1.0937-3.2216 0.56495-6.7763-1.418-9.541-1.9816-2.766-5.1766-4.4063-8.5781-4.4063h-1.082c-4.5509 0-8.588 2.9152-10.02 7.2344l-13.025 39.305-13.086-39.316c-1.4354-4.314-5.4719-7.2227-10.018-7.2227h-1.4746c-4.5522 0-8.59 2.9152-10.021 7.2344l-13.023 39.305-13.086-39.316c-1.4354-4.314-5.4706-7.2227-10.018-7.2227h-1.0801zm7.9961 118.37c-6.4781 0-11.732 5.2536-11.732 11.73v157.88c0 6.4781 5.2543 11.73 11.732 11.73h154.85c6.4794 0 11.732-5.2536 11.732-11.73v-157.88c0-6.4781-5.253-11.73-11.732-11.73h-154.85zm-151.71 2.8613c-11.191 0-20.264 9.0716-20.264 20.264 0 11.191 9.0716 20.264 20.264 20.264h100.42c11.191 0 20.266-9.0729 20.266-20.264 0.0013-11.192-9.0728-20.264-20.264-20.264h-100.42zm0 67.537c-11.191 0-20.264 9.0729-20.264 20.264 0 11.191 9.0716 20.266 20.264 20.266h100.42c11.191 0 20.266-9.0735 20.266-20.266 0.0013-11.191-9.0728-20.264-20.264-20.264h-100.42zm0 67.551c-11.191 0-20.264 9.0735-20.264 20.266 0 11.191 9.0716 20.264 20.264 20.264h100.42c11.191 0 20.266-9.0728 20.266-20.264 0.0013-11.192-9.0728-20.266-20.264-20.266h-100.42z" fill="#0AA347" stroke-width="1.2943"/>
</svg>
