<?xml version="1.0" encoding="UTF-8"?>
<svg width="512px" height="512px" fill="#0AA347" version="1.1" viewBox="0 0 361.77 361.77" xmlns="http://www.w3.org/2000/svg" xml:space="preserve"> <g fill="#0AA347" xml:space="preserve">  <g fill="#0AA347" xml:space="preserve">   <g fill="#0AA347" xml:space="preserve">    <path d="m323.88 43.77h-27.5v-18.77c0-13.807-11.193-25-25-25h-1c-13.807 0-25 11.193-25 25v18.77h-129v-18.77c0-13.807-11.193-25-25-25h-1c-13.807 0-25 11.193-25 25v18.77h-27.5c-13.807 0-25 11.193-25 25v268c0 13.809 11.193 25 25 25h286c13.807 0 25-11.191 25-25v-268c0-13.807-11.194-25-25-25zm-17 278.5h-252v-203h252v203z"/>
<path d="m89.136 211.13h43.498c2.209 0 4-1.791 4-4v-43.498c0-2.209-1.791-4-4-4h-43.498c-2.209 0-4 1.791-4 4v43.498c0 2.209 1.791 4 4 4z"/>
<path d="m159.14 211.13h43.498c2.209 0 4-1.791 4-4v-43.498c0-2.209-1.791-4-4-4h-43.498c-2.209 0-4 1.791-4 4v43.498c0 2.209 1.791 4 4 4z"/>
<path d="m229.14 211.13h43.498c2.209 0 4-1.791 4-4v-43.498c0-2.209-1.791-4-4-4h-43.498c-2.209 0-4 1.791-4 4v43.498c0 2.209 1.791 4 4 4z"/>
<path d="m89.136 281.13h43.498c2.209 0 4-1.791 4-4v-43.498c0-2.209-1.791-4-4-4h-43.498c-2.209 0-4 1.791-4 4v43.498c0 2.209 1.791 4 4 4z"/>
<path d="m159.14 281.13h43.498c2.209 0 4-1.791 4-4v-43.498c0-2.209-1.791-4-4-4h-43.498c-2.209 0-4 1.791-4 4v43.498c0 2.209 1.791 4 4 4z"/>
<path d="m229.14 281.13h43.498c2.209 0 4-1.791 4-4v-43.498c0-2.209-1.791-4-4-4h-43.498c-2.209 0-4 1.791-4 4v43.498c0 2.209 1.791 4 4 4z"/>
			</g>
		</g>
	</g>
</svg>
