<?xml version="1.0" encoding="UTF-8"?>
<svg width="512" height="512" version="1.1" viewBox="0 0 135.47 135.47" xmlns="http://www.w3.org/2000/svg" xml:space="preserve"> <g transform="translate(0 -161.53)" xml:space="preserve">  <path d="m23.906 161.53c-2.9312 0-5.3123 2.3841-5.3123 5.3128v43.142h-3.252c-4.1931 0-7.5928 3.3987-7.5928 7.5933v39.485c0 4.1916 3.3997 7.5923 7.5928 7.5923h3.2525v27.029c0 2.9285 2.3812 5.3129 5.3123 5.3129h87.655c2.9285 0 5.3123-2.3842 5.3123-5.3129v-27.029h3.253c4.1919 0 7.5923-3.4007 7.5923-7.5923v-39.484c-2.5e-4 -4.1944-3.4009-7.5928-7.5928-7.5928h-3.2525v-15.695c0-0.0979-0.0154-0.19647-0.0284-0.29559-5e-3 -0.62322-0.20374-1.2358-0.63045-1.7208l-26.118-29.836c-8e-3 -8e-3 -0.0158-0.0102-0.0212-0.0186-0.15568-0.17388-0.33733-0.31872-0.52917-0.4439-0.0568-0.0381-0.1141-0.0699-0.17362-0.10284-0.16626-0.0908-0.34249-0.1663-0.524-0.22066-0.0492-0.0138-0.0934-0.0337-0.14263-0.0465-0.19725-0.0467-0.4022-0.076-0.60978-0.076zm0 5.3139h61.534v27.18c0 1.4676 1.1906 2.6562 2.6562 2.6562h23.465v13.308h-87.655zm9.4816 51.922h12.632c4.7869 0 7.9074 0.19493 9.3612 0.58498 2.2339 0.58507 4.104 1.8618 5.611 3.8297 1.507 1.9502 2.2608 4.4767 2.2608 7.5794 0 2.3935-0.43454 4.4057-1.3033 6.0368-0.86874 1.6311-1.9769 2.9164-3.3243 3.8561-1.3297 0.92193-2.6861 1.5336-4.069 1.835-1.8793 0.37232-4.6007 0.55811-8.1644 0.55811h-5.1325v14.707h-7.8719zm32.391 0h8.5369l9.8666 28.855 9.5472-28.855h8.3504l-13.962 38.987h-8.4036zm-24.519 6.5955v11.063h4.3083c3.1026 0 5.1768-0.20356 6.2229-0.61133 1.046-0.40778 1.8618-1.0464 2.4469-1.9151 0.6028-0.86874 0.90382-1.8794 0.90382-3.0318 0-1.4184-0.41625-2.5884-1.2495-3.5104-0.83328-0.92193-1.8881-1.4981-3.1647-1.7286-0.93966-0.17729-2.8281-0.26561-5.6648-0.26561zm-17.353 39.294h87.655v25.591h-87.655z" fill="#0AA347"/>
	</g>
</svg>
