<?xml version="1.0" encoding="UTF-8"?>
<svg width="512px" height="512px" enable-background="new 0 0 612.011 612.011" version="1.1" viewBox="0 0 612.01 612.01" xmlns="http://www.w3.org/2000/svg" xml:space="preserve"> <g fill="#0AA347" xml:space="preserve">  <g fill="#0AA347" xml:space="preserve">   <g id="Refresh" fill="#0AA347" xml:space="preserve">    <g fill="#0AA347" xml:space="preserve">     <path d="m268.24 497.64h-31.46c-90.779-14.859-160.27-93.9-160.27-188.89 0-31.806 8.176-61.6 21.963-88.003l23.475 32.532c17.08 23.667 53.939 17.08 61.771-11.067l18.707-67.247 25.792-92.751c6.185-22.231-10.531-44.212-33.585-44.193l-90.952 0.172-68.855 0.096c-28.377 0.039-44.787 32.207-28.186 55.241l43.198 59.875c-31.288 43.809-49.842 97.365-49.842 155.35 0 133.98 98.228 244.98 226.54 264.81 3.504 0.537 6.893 0.402 10.225-0.037v0.479h31.46c20.852 0 37.76-16.929 37.76-37.8v-0.766c0.018-20.87-16.889-37.796-37.741-37.796zm293.9-38.986c31.305-43.828 49.86-97.365 49.86-155.34 0-133.98-98.229-244.98-226.54-264.81-3.504-0.536-6.893-0.402-10.225 0.038v-0.479h-31.46c-20.853 0-37.759 16.926-37.759 37.797v0.766c0 20.871 16.907 37.798 37.759 37.798h31.46c90.778 14.858 160.27 93.9 160.27 188.89 0 31.804-8.176 61.599-21.963 87.983l-23.475-32.531c-17.08-23.666-53.939-17.08-61.771 11.049l-18.708 67.246-25.792 92.752c-6.185 22.229 10.531 44.211 33.586 44.193l90.934-0.136 68.874-0.096c28.377-0.039 44.785-32.207 28.166-55.242l-43.216-59.872z" fill="#0AA347"/>
				</g>
			</g>
		</g>
	</g>
</svg>
