<?xml version="1.0" encoding="UTF-8"?>
<svg width="512px" height="512px" enable-background="new 0 0 487.77 487.77" version="1.1" viewBox="0 0 487.77 487.77" xmlns="http://www.w3.org/2000/svg" xml:space="preserve"> <g transform="matrix(1.0538 0 0 1.0538 .00076811 -.00051512)" fill="#0AA347" xml:space="preserve">  <g fill="#0AA347" xml:space="preserve">   <g fill="#0AA347" xml:space="preserve">    <path d="m380.44 70.332c-0.376-4.936-3.362-9.46-7.663-12.781-20.216-15.615-39.745-32.078-58.676-49.234-4.764-7.814-15.884-12.126-24.359-3.79-67.636 66.495-126.85 141.44-201.06 201.06-2.034 1.632-3.405 3.427-4.258 5.278-4.248 5.583-5.319 13.649 0.794 20.251 69.221 74.753 133.55 153.91 204.53 227.06 4.809 4.961 10.547 5.561 15.463 3.702 2.828-0.36 5.682-1.488 8.333-3.702 21.018-17.61 41.223-36.125 60.666-55.467 8.363-8.322 4.22-19.296-3.488-24.136-40.654-48.362-87.067-96.258-127.67-144.67 46.053-46.261 90.439-98.67 134.62-146.66 4.956-5.387 5.144-11.73 2.768-16.924zm-165.23 147.39c-2.356 2.311-3.656 4.837-4.248 7.373-3.786 5.578-4.674 13.348 0.78 19.883 41.018 49.13 87.979 97.63 129.22 146.56-12.446 11.999-25.288 23.572-38.364 34.901-63.521-66.445-122.15-137.32-184.15-205.15 66.511-55.135 121.35-122.17 182.02-183.39 14.833 13.089 30.042 25.692 45.564 37.948-42.151 47.076-85.618 97.576-130.82 141.87z" fill="#0AA347"/>
			</g>
		</g>
	</g>
</svg>
