<?xml version="1.0" encoding="UTF-8"?>
<svg width="512" height="512" version="1.1" viewBox="0 0 135.47 135.47" xmlns="http://www.w3.org/2000/svg" xmlns:xlink="http://www.w3.org/1999/xlink" xml:space="preserve">&#13;&#10;<text x="12.667835" y="71.78968" fill="#0AA347"/>
<g transform="matrix(.26458 0 0 .27534 2.6456 8.8252e-5)" fill="#0AA347" xml:space="preserve">  <g fill="#0AA347" xml:space="preserve">   <g fill="#0AA347" xml:space="preserve">    <path d="m333.81 375.44c-5.408-5.408-13.76-5.408-19.168 0l-49.416 49.864v-358.8l49.644 50.096c2.604 2.612 5.876 4.052 9.584 4.052s7.084-1.44 9.7-4.052l7.392-7.448c2.612-2.612 4.02-6.096 4.02-9.812 0-3.712-1.448-7.2-4.06-9.808l-85.508-85.496c-2.672-2.676-6.252-4.104-9.924-4.04-3.828-0.068-7.412 1.36-10.08 4.036l-85.464 85.464c-5.228 5.224-5.228 14.4 0 19.62l7.444 7.448c5.412 5.404 14.572 5.404 19.968-4e-3l48.816-48.456v355.98l-49.036-48.692c-5.416-5.408-14.396-5.408-19.804 0l-7.528 7.448c-5.236 5.224-5.276 14.4-0.048 19.62l85.468 85.5c2.68 2.668 6.244 4.104 9.916 4.028 3.828 0.076 7.404-1.356 10.076-4.028l85.46-85.464c5.232-5.224 5.232-14.396 0-19.62z" fill="#0AA347"/>
			</g>
		</g>
	</g>
</svg>
