<?xml version="1.0" encoding="UTF-8"?>
<svg width="512px" height="512px" enable-background="new 0 0 487.77 487.77" version="1.1" viewBox="0 0 487.77 487.77" xmlns="http://www.w3.org/2000/svg" xml:space="preserve"> <g transform="matrix(1.5472 0 0 1.5472 1.2158e-6 1.2158e-6)" fill="#0AA347" xml:space="preserve">  <g fill="#0AA347" xml:space="preserve">   <g fill="#0AA347" xml:space="preserve">    <polygon points="216.2 309.54 116.87 309.54 104.56 309.54 0 309.54 0 279.34 216.2 279.34"/>
<polygon points="216.2 93.326 216.2 244.46 216.2 250.5 0 250.5 0 93.326 14.811 93.326 45.378 93.326"/>
<path d="m76.012 64.488 167.77-58.772 53.515 152.78-52.266 17.976v-83.942c0-15.465-12.574-28.039-28.036-28.039z"/>
<polygon points="306.82 185.7 315.25 209.76 245.03 234.35 245.03 206.96"/>
			</g>
		</g>
	</g>
</svg>
