<?xml version="1.0" encoding="UTF-8"?>
<svg width="512px" height="512px" enable-background="new 0 0 485.677 485.677" version="1.1" viewBox="0 0 485.68 485.68" xmlns="http://www.w3.org/2000/svg" xml:space="preserve"> <g fill="#16A16C" xml:space="preserve">  <g fill="#16A16C" xml:space="preserve">   <path d="m242.83 485.68c-133.9 0-242.83-108.94-242.83-242.84 0-133.9 108.94-242.84 242.83-242.84 133.91 0 242.84 108.94 242.84 242.84 0 133.9-108.94 242.84-242.84 242.84zm0-411.25c-92.861 0-168.4 75.546-168.4 168.41 0 92.862 75.542 168.41 168.4 168.41s168.41-75.546 168.41-168.41c0-92.861-75.553-168.41-168.41-168.41z" fill="#16A16C"/>
<g fill="#16A16C" xml:space="preserve">    <path d="m373.28 243.57c0 20.88-16.926 37.807-37.807 37.807h-185.28c-20.879 0-37.805-16.926-37.805-37.805 0-21.69 17.583-39.273 39.273-39.273h183.81c20.881 0 37.807 16.927 37.807 37.807v1.464z" fill="#16A16C"/>
			</g>
		</g>
	</g>
</svg>
