<?xml version="1.0" encoding="UTF-8"?>
<svg width="512" height="512" version="1.1" viewBox="0 0 135.47 135.47" xmlns="http://www.w3.org/2000/svg" xml:space="preserve"> <text x="12.667835" y="71.78968" fill="#16A16C"/>
<g transform="matrix(.27891 0 0 .27891 .13945 .13945)" fill="#16A16C" xml:space="preserve">  <g fill="#16A16C" stroke="#16A16C" xml:space="preserve">&#10;<path d="m384.28 100.27h-37.485v25.076h27.123l0.994 0.993v52.45c0 15.682 12.703 28.385 28.376 28.385h52.749l0.355 0.339v236.27c0 8.731-7.101 15.832-15.84 15.832h-210.68c-8.344 0-15.051-6.557-15.633-14.768h-25.17c0.576 22.04 18.613 39.851 40.803 39.851h210.68c22.545 0 40.906-18.377 40.906-40.915v-246.7z"/>
<path d="m439.36 241c0-7.101-5.768-12.861-12.876-12.861h-79.692v25.736h79.692c7.108 0 12.876-5.768 12.876-12.875z"/>
<path d="m439.36 318.21c0-7.109-5.768-12.869-12.876-12.869h-79.692v25.744h79.692c7.108 0 12.876-5.768 12.876-12.875z"/>
<path d="m439.36 395.42c0-7.107-5.768-12.867-12.876-12.867h-80.102c-0.568 9.234-2.996 17.896-6.975 25.735h87.077c7.108 0 12.876-5.768 12.876-12.868z"/>
<path d="m325.52 378.5v-271.81l-107.08-106.69h-170.12c-24.854 0-45.082 20.22-45.082 45.09v333.41c0 24.845 20.228 45.089 45.082 45.089h232.13c24.838 0 45.066-20.244 45.066-45.089zm-294.66 0v-333.41c0-9.639 7.84-17.462 17.462-17.462h158.71l1.096 1.096v57.792c0 17.281 13.995 31.276 31.26 31.276h58.125l0.394 0.378v260.33c0 9.63-7.826 17.445-17.448 17.445h-232.13c-9.622 0-17.462-7.815-17.462-17.445z"/>
<path d="m264.97 140.89h-201.17c-4.972 0-9.141 2.72-11.669 6.597-1.451 2.23-2.506 4.729-2.506 7.581s1.056 5.358 2.506 7.581c2.529 3.876 6.697 6.596 11.669 6.596h201.17c4.972 0 9.141-2.72 11.67-6.596 1.449-2.223 2.506-4.729 2.506-7.581 0-2.853-1.057-5.352-2.506-7.581-2.529-3.878-6.698-6.597-11.67-6.597z"/>
<path d="m264.97 225.96h-201.17c-4.972 0-9.141 2.711-11.669 6.596-1.451 2.222-2.506 4.729-2.506 7.58 0 2.854 1.056 5.352 2.506 7.582 2.529 3.876 6.697 6.596 11.669 6.596h201.17c4.972 0 9.141-2.72 11.67-6.596 1.449-2.23 2.506-4.729 2.506-7.582 0-2.852-1.057-5.358-2.506-7.58-2.529-3.885-6.698-6.596-11.67-6.596z"/>
<path d="m264.97 311.03h-201.17c-4.972 0-9.141 2.719-11.669 6.596-1.451 2.222-2.506 4.728-2.506 7.58 0 2.854 1.056 5.359 2.506 7.582 2.529 3.885 6.697 6.603 11.669 6.603h201.17c4.972 0 9.141-2.719 11.67-6.603 1.449-2.223 2.506-4.729 2.506-7.582 0-2.852-1.057-5.358-2.506-7.58-2.529-3.877-6.698-6.596-11.67-6.596z"/>
		</g>
	</g>
</svg>
