<?xml version="1.0" encoding="UTF-8"?>
<svg width="512" height="512" version="1.1" viewBox="0 0 135.47 135.47" xmlns="http://www.w3.org/2000/svg" xmlns:xlink="http://www.w3.org/1999/xlink" xml:space="preserve"> <text x="12.667835" y="71.78968" fill="#ffffff" font-family="Arial" font-size="25.4px" font-weight="bold" letter-spacing="0px" stroke-width=".26458px" word-spacing="0px" style="line-height:125%" xml:space="preserve"> </text>
<g transform="matrix(.58352 0 0 .58352 -.00011325 .00017326)" fill="#16A16C" xml:space="preserve">  <g transform="rotate(-90 116.08 116.08)" xml:space="preserve">   <path d="m203.79 99.628-154.48-97.334c-4.567-2.719-10.238-2.266-14.521-2.266-17.132 0-17.056 13.227-17.056 16.578v198.94c0 2.833-0.075 16.579 17.056 16.579 4.283 0 9.955 0.451 14.521-2.267l154.48-97.333c12.68-7.545 10.489-16.449 10.489-16.449s2.192-8.904-10.488-16.448z" clip-rule="evenodd" fill="#16A16C" fill-rule="evenodd"/>
		</g>
	</g>
</svg>
