<?xml version="1.0" encoding="UTF-8" standalone="no"?>
<svg
   xmlns:dc="http://purl.org/dc/elements/1.1/"
   xmlns:cc="http://creativecommons.org/ns#"
   xmlns:rdf="http://www.w3.org/1999/02/22-rdf-syntax-ns#"
   xmlns:svg="http://www.w3.org/2000/svg"
   xmlns="http://www.w3.org/2000/svg"
   xmlns:sodipodi="http://sodipodi.sourceforge.net/DTD/sodipodi-0.dtd"
   xmlns:inkscape="http://www.inkscape.org/namespaces/inkscape"
   inkscape:version="1.0 (4035a4fb49, 2020-05-01)"
   sodipodi:docname="financial-document.svg"
   xml:space="preserve"
   viewBox="0 0 80.000001 80.000001"
   height="80"
   width="80"
   y="0px"
   x="0px"
   id="Capa_1"
   version="1.1"><metadata
   id="metadata41"><rdf:RDF><cc:Work
       rdf:about=""><dc:format>image/svg+xml</dc:format><dc:type
         rdf:resource="http://purl.org/dc/dcmitype/StillImage" /><dc:title></dc:title></cc:Work></rdf:RDF></metadata><defs
   id="defs39" /><sodipodi:namedview
   inkscape:current-layer="Capa_1"
   inkscape:window-maximized="1"
   inkscape:window-y="-8"
   inkscape:window-x="-8"
   inkscape:cy="86.065565"
   inkscape:cx="83.870016"
   inkscape:zoom="4.240459"
   showgrid="false"
   id="namedview37"
   inkscape:window-height="1017"
   inkscape:window-width="1920"
   inkscape:pageshadow="2"
   inkscape:pageopacity="0"
   guidetolerance="10"
   gridtolerance="10"
   objecttolerance="10"
   borderopacity="1"
   bordercolor="#666666"
   pagecolor="#ffffff" />
<g
   style="fill:#ffffff"
   transform="matrix(0.19955051,0,0,0.19955051,0.18670012,0)"
   id="g4">
	<path
   style="fill:#ffffff"
   id="path2"
   d="m 124.25,168.9 c -3.7,3.1 -8,4.3 -14.1,4.9 v -33 c 7.3,2.4 12.2,4.9 15.3,7.3 2.4,2.4 4.3,6.1 4.3,10.4 -0.599,4.3 -2.399,7.9 -5.5,10.4 z M 97.951,82.6 c -5.5,0.6 -9.8,2.4 -12.9,4.9 -3.1,3.1 -4.9,6.7 -4.9,10.4 0,4.3 1.2,7.3 3.7,9.8 2.4,2.4 7.3,4.9 14.1,7.3 V 82.6 Z m 287.599,69.8 v 203.2 c 0,25.1 -20.199,45.301 -45.299,45.301 h -279.6 c -25.1,0 -45.3,-20.201 -45.3,-45.301 V 45.3 c 0,-25.1 20.2,-45.3 45.3,-45.3 h 175 c 17.699,0 26.299,4.9 37.299,16.5 l 95.5,96.7 c 12.801,12.2 17.1,20.2 17.1,39.2 z m -201.3,-45.3 h 67.299 c 8,0 14.102,-6.1 14.102,-13.5 V 83.2 c 0,-7.3 -6.102,-13.5 -14.102,-13.5 H 184.25 Z m -86.299,30.6 v 36.1 c -11,-1.8 -21.4,-6.7 -31.8,-15.9 l -13.5,15.9 c 13.5,11.6 28.8,18.4 45.3,20.2 v 13.4 h 11.6 v -13.5 c 12.9,-0.6 22.6,-4.3 30.6,-11 7.3,-6.7 11.6,-15.9 11.6,-26.3 0,-11 -3.1,-19 -9.8,-24.5 -6.7,-5.5 -17.1,-10.4 -31.2,-13.5 h -0.6 V 83.7 c 9.8,1.2 18.4,5.5 26.3,11 l 12.2,-17.1 c -12.2,-8 -25.1,-12.9 -38.6,-13.5 V 53.7 h -11.6 v 9.2 c -11.6,0.6 -21.4,4.3 -28.8,11 -7.3,6.7 -11.6,15.9 -11.6,26.3 0,10.4 3.7,18.4 9.8,24.5 6.2,5 16,9.9 30.1,13 z M 349.45,336 c 0,-7.301 -6.1,-13.5 -14.1,-13.5 H 64.25 c -8,0 -13.5,6.1 -13.5,13.5 v 10.4 c 0,7.299 6.1,13.5 13.5,13.5 h 271.1 c 7.301,0 14.1,-6.1 14.1,-13.5 V 336 Z m 0,-84.5 c 0,-7.301 -6.1,-13.5 -14.1,-13.5 H 64.25 c -8,0 -13.5,6.1 -13.5,13.5 v 10.4 c 0,7.299 6.1,13.5 13.5,13.5 h 271.1 c 7.301,0 14.1,-6.1 14.1,-13.5 z m 0,-84.5 c 0,-7.3 -6.1,-13.5 -14.1,-13.5 h -151.1 v 37.3 h 151.2 c 7.301,0 14.1,-6.1 14.1,-13.5 V 167 Z" />
</g>
<g
   id="g6">
</g>
<g
   id="g8">
</g>
<g
   id="g10">
</g>
<g
   id="g12">
</g>
<g
   id="g14">
</g>
<g
   id="g16">
</g>
<g
   id="g18">
</g>
<g
   id="g20">
</g>
<g
   id="g22">
</g>
<g
   id="g24">
</g>
<g
   id="g26">
</g>
<g
   id="g28">
</g>
<g
   id="g30">
</g>
<g
   id="g32">
</g>
<g
   id="g34">
</g>
</svg>
